M05-Application-Data_Wrangling_Tidyverse
…
      March 7, 2025

1 

Create a new project called “M05_02”. Inside this project, create a new Quarto Markdown file called “M05-2-Data_Wrangling_Tidyverse.qmd”

1.1 Now, using the Tidyverse library, set the built-in “airquality” dataset to a tibble format named, “air.tib.” Confirm that the operation was successful. Next, create a new data frame from “air.tib” and assign “air.df” to the data frame. Confirm that the operation was successful.

Code

library(tidyverse)
air.tib <- as_tibble(airquality)
print(air.tib)

# A tibble: 153 × 6
   Ozone Solar.R  Wind  Temp Month   Day
   <int>   <int> <dbl> <int> <int> <int>
 1    41     190   7.4    67     5     1
 2    36     118   8      72     5     2
 3    12     149  12.6    74     5     3
 4    18     313  11.5    62     5     4
 5    NA      NA  14.3    56     5     5
 6    28      NA  14.9    66     5     6
 7    23     299   8.6    65     5     7
 8    19      99  13.8    59     5     8
 9     8      19  20.1    61     5     9
10    NA     194   8.6    69     5    10
# ℹ 143 more rows
…
Hint: Successful data should have four columns: “religion”, “income”, and “count”. Assign “relig_income_longer” to the tydy data and print it out. The column “Don’t know/refused” can be deleted if you wish.

Code

relig_income_longer <- relig_income %>%
  pivot_longer(
    cols = -religion,      
    names_to = "income",   
    values_to = "count" 
  ) %>%
  filter(income != "Don't know/refused")  
print(relig_income_longer)

# A tibble: 162 × 3
   religion income    count
   <chr>    <chr>     <dbl>
 1 Agnostic <$10k        27
 2 Agnostic $10-20k      34
 3 Agnostic $20-30k      60
 4 Agnostic $30-40k      81
 5 Agnostic $40-50k      76
 6 Agnostic $50-75k     137
 7 Agnostic $75-100k    122
 8 Agnostic $100-150k   109
 9 Agnostic >150k        84
10 Atheist  <$10k        12
# ℹ 152 more rows
…
Code

library(tidyr)
library(dplyr)
library(ggplot2)
us_rent_income_wider <- us_rent_income %>%
  pivot_wider(
    names_from = variable,
    values_from = c(estimate, moe)
  )
colnames(us_rent_income_wider) <- c("GEOID", "NAME", "estimate_income", "estimate_rent", "moe_income", "moe_rent")
print(us_rent_income_wider)

# A tibble: 52 × 6
   GEOID NAME                 estimate_income estimate_rent moe_income moe_rent
   <chr> <chr>                          <dbl>         <dbl>      <dbl>    <dbl>
 1 01    Alabama                        24476           747        136        3
 2 02    Alaska                         32940          1200        508       13
 3 04    Arizona                        27517           972        148        4
 4 05    Arkansas                       23789           709        165        5
 5 06    California                     29454          1358        109        3
 6 08    Colorado                       32401          1125        109        5
 7 09    Connecticut                    35326          1123        195        5
 8 10    Delaware                       31560          1076        247       10
 9 11    District of Columbia           43198          1424        681       17
10 12    Florida                        25952          1077         70        3
# ℹ 42 more rows
…
